\babel@toc {english}{}
\contentsline {chapter}{\numberline {1}Introduction}{1}{chapter.1}%
\contentsline {section}{\numberline {1.1}Heisenberg Model}{1}{section.1.1}%
\contentsline {section}{\numberline {1.2}Ground State Energy (QOptics and ITensors)}{2}{section.1.2}%
\contentsline {section}{\numberline {1.3}Time-Evolution (QOptics and ITensors)}{4}{section.1.3}%
